…
# Plot 2 - Loudness Distributions Across Each Decade

<img src="Mathesius_project_01_files/figure-html/unnamed-chunk-4-1.png" width="80%" style="display: block; margin: auto;" />

# Plot 3 - Comparing Song Characteristics from Past & Present

<img src="Mathesius_project_01_files/figure-html/unnamed-chunk-5-1.png" width="80%" style="display: block; margin: auto;" />

# Plot 4 - Song Durations Over Time

<img src="Mathesius_project_01_files/figure-html/unnamed-chunk-6-1.png" width="80%" style="display: block; margin: auto;" />
# Data Summary - Artist Total Songs in Descending Order

```
## # A tibble: 468 × 2
##    artist_name        total_songs
##    <chr>                    <int>
##  1 Rihanna                      7
##  2 Elton John                   6
##  3 Katy Perry                   6
##  4 Mariah Carey                 5
##  5 The Rolling Stones           5
##  6 Usher                        5
##  7 Donna Summer                 4
##  8 The Beatles                  4
##  9 Wings                        4
## 10 Bee Gees                     3
## # ℹ 458 more rows
```
