…
FIFA_Data <- read_csv("https://raw.githubusercontent.com/aalhamadani/datasets/main/fifa18.csv", show_col_types = FALSE)

#Will now filter to obtain player counts in each country
NetPlayers <- FIFA_Data %>%
  group_by(nationality) %>%
  summarise(PlayerCount = n()) %>%
  arrange(desc(PlayerCount)) #Arranging in descending order like I had done in Mini Project 1
NetPlayers
```

```
## # A tibble: 162 × 2
##    nationality PlayerCount
##    <chr>             <int>
##  1 England            1516
##  2 Germany            1101
##  3 Spain               989
##  4 France              942
##  5 Argentina           938
##  6 Italy               796
##  7 Brazil              785
##  8 Colombia            578
##  9 Japan               442
## 10 Netherlands         415
## # ℹ 152 more rows
```
…
AgeStats
```

```
## # A tibble: 29 × 5
##      age AverageOverall AveragePotential AverageAgility AverageStrength
##    <dbl>          <dbl>            <dbl>          <dbl>           <dbl>
##  1    16           57.3             75.4           61.1            48.9
##  2    17           56.0             73.5           58.7            51.8
##  3    18           57.3             72.6           59.7            54.5
##  4    19           59.4             72.7           61.0            57.8
##  5    20           61.4             72.6           62.0            59.6
##  6    21           63.3             72.7           62.7            61.0
##  7    22           64.7             72.5           64.3            62.7
##  8    23           66.0             72.4           64.0            65.1
##  9    24           67.1             72.0           65.1            66.6
## 10    25           68.0             70.8           65.7            67.0
## # ℹ 19 more rows
```
…
